{
  "project_info": {
    "project_number": "667545136400",
    "project_id": "poco-loco-mercado",
    "storage_bucket": "poco-loco-mercado.appspot.com"
  },
  "client": [
    {
      "client_info": {
        "mobilesdk_app_id": "1:667545136400:android:e0f0d4929a50ac9e624995",
        "android_client_info": {
          "package_name": "poco.loco.mercado"
        }
      },
      "oauth_client": [
        {
          "client_id": "667545136400-ft189dj1or0kv4vfmgu1acgovpd7clds.apps.googleusercontent.com",
          "client_type": 3
        }
      ],
      "api_key": [
        {
          "current_key": "AIzaSyBrLPK58lNGKrzKcnTPwZXWFnJjRotOYTA"
        }
      ],
      "services": {
        "appinvite_service": {
          "other_platform_oauth_client": [
            {
              "client_id": "667545136400-ft189dj1or0kv4vfmgu1acgovpd7clds.apps.googleusercontent.com",
              "client_type": 3
            }
          ]
        }
      }
    }
  ],
  "configuration_version": "1"
}